{
    "openapi": "3.0.0",
    "info": {
        "title": "Pet Shop API - Swagger Documentation",
        "version": "1.0.0"
    },
    "paths": {
        "/api/v1/admin/create": {
            "post": {
                "tags": [
                    "Admin"
                ],
                "summary": "Create a new admin",
                "operationId": "admin-create",
                "requestBody": {
                    "required": true,
                    "content": {
                        "application/x-www-form-urlencoded": {
                            "schema": {
                                "required": [
                                    "first_name",
                                    "last_name",
                                    "email",
                                    "password",
                                    "password_confirmation",
                                    "avatar",
                                    "address",
                                    "phone_number",
                                    "marketing"
                                ],
                                "properties": {
                                    "first_name": {
                                        "description": "Admin first name",
                                        "type": "string"
                                    },
                                    "last_name": {
                                        "description": "Admin last name",
                                        "type": "string"
                                    },
                                    "email": {
                                        "description": "Admin email",
                                        "type": "string"
                                    },
                                    "password": {
                                        "description": "Admin password",
                                        "type": "string"
                                    },
                                    "password_confirmation": {
                                        "description": "Admin password",
                                        "type": "string"
                                    },
                                    "avatar": {
                                        "description": "Avatar image UUID",
                                        "type": "string"
                                    },
                                    "address": {
                                        "description": "Admin main address",
                                        "type": "string"
                                    },
                                    "phone_number": {
                                        "description": "Admin main phone number",
                                        "type": "string"
                                    },
                                    "marketing": {
                                        "description": "Admin marketing preference",
                                        "type": "boolean"
                                    }
                                },
                                "type": "object"
                            }
                        }
                    }
                },
                "responses": {
                    "200": {
                        "description": "OK"
                    },
                    "401": {
                        "description": "Unauthorized"
                    },
                    "404": {
                        "description": "Page not found"
                    },
                    "422": {
                        "description": "Unproccessable Entity"
                    },
                    "500": {
                        "description": "Internal server error"
                    }
                }
            }
        },
        "/api/v1/admin/login": {
            "post": {
                "tags": [
                    "Admin"
                ],
                "summary": "Login an Admin account",
                "operationId": "admin-login",
                "requestBody": {
                    "required": true,
                    "content": {
                        "application/x-www-form-urlencoded": {
                            "schema": {
                                "required": [
                                    "email",
                                    "password"
                                ],
                                "properties": {
                                    "email": {
                                        "description": "Admin email address",
                                        "type": "string"
                                    },
                                    "password": {
                                        "description": "Admin password",
                                        "type": "string"
                                    }
                                },
                                "type": "object"
                            }
                        }
                    }
                },
                "responses": {
                    "200": {
                        "description": "OK"
                    },
                    "401": {
                        "description": "Unauthorized"
                    },
                    "404": {
                        "description": "Page not found"
                    },
                    "422": {
                        "description": "Unproccessable Entity"
                    },
                    "500": {
                        "description": "Internal server error"
                    }
                }
            }
        },
        "/api/v1/admin/user-listing": {
            "get": {
                "tags": [
                    "Admin"
                ],
                "summary": "List all users",
                "operationId": "admin-users-listing",
                "parameters": [
                    {
                        "name": "page",
                        "in": "query",
                        "required": false,
                        "schema": {
                            "type": "integer"
                        }
                    },
                    {
                        "name": "limit",
                        "in": "query",
                        "required": false,
                        "schema": {
                            "type": "integer"
                        }
                    },
                    {
                        "name": "sortBy",
                        "in": "query",
                        "required": false,
                        "schema": {
                            "type": "string"
                        }
                    },
                    {
                        "name": "desc",
                        "in": "query",
                        "required": false,
                        "schema": {
                            "type": "boolean"
                        }
                    },
                    {
                        "name": "first_name",
                        "in": "query",
                        "required": false,
                        "schema": {
                            "type": "string"
                        }
                    },
                    {
                        "name": "email",
                        "in": "query",
                        "required": false,
                        "schema": {
                            "type": "string"
                        }
                    },
                    {
                        "name": "phone",
                        "in": "query",
                        "required": false,
                        "schema": {
                            "type": "string"
                        }
                    },
                    {
                        "name": "address",
                        "in": "query",
                        "required": false,
                        "schema": {
                            "type": "string"
                        }
                    },
                    {
                        "name": "created_at",
                        "in": "query",
                        "required": false,
                        "schema": {
                            "type": "string"
                        }
                    },
                    {
                        "name": "marketing",
                        "in": "query",
                        "required": false,
                        "schema": {
                            "type": "boolean"
                        }
                    }
                ],
                "responses": {
                    "200": {
                        "description": "OK"
                    },
                    "401": {
                        "description": "Unauthorized"
                    },
                    "404": {
                        "description": "Page not found"
                    },
                    "422": {
                        "description": "Unproccessable Entity"
                    },
                    "500": {
                        "description": "Internal server error"
                    }
                }
            }
        },
        "/api/v1/admin/logout": {
            "get": {
                "tags": [
                    "Admin"
                ],
                "summary": "Logout an Admin account",
                "operationId": "admin-logout",
                "responses": {
                    "200": {
                        "description": "OK"
                    },
                    "401": {
                        "description": "Unauthorized"
                    },
                    "404": {
                        "description": "Page not found"
                    },
                    "422": {
                        "description": "Unproccessable Entity"
                    },
                    "500": {
                        "description": "Internal server error"
                    }
                }
            }
        },
        "/api/v1/admin/user-delete/{uuid}": {
            "delete": {
                "tags": [
                    "Admin"
                ],
                "summary": "Delete a User account",
                "operationId": "admin-user-delete",
                "parameters": [
                    {
                        "name": "uuid",
                        "in": "path",
                        "required": true,
                        "schema": {
                            "type": "string"
                        }
                    }
                ],
                "responses": {
                    "200": {
                        "description": "OK"
                    },
                    "401": {
                        "description": "Unauthorized"
                    },
                    "404": {
                        "description": "Page not found"
                    },
                    "422": {
                        "description": "Unproccessable Entity"
                    },
                    "500": {
                        "description": "Internal server error"
                    }
                }
            }
        },
        "/api/v1/admin/user-edit/{uuid}": {
            "put": {
                "tags": [
                    "Admin"
                ],
                "summary": "Edit a user account",
                "operationId": "admin-user-edit",
                "parameters": [
                    {
                        "name": "uuid",
                        "in": "path",
                        "required": true,
                        "schema": {
                            "type": "string"
                        }
                    }
                ],
                "requestBody": {
                    "required": true,
                    "content": {
                        "application/x-www-form-urlencoded": {
                            "schema": {
                                "required": [
                                    "first_name",
                                    "last_name",
                                    "email",
                                    "password",
                                    "password_confirmation",
                                    "avatar",
                                    "address",
                                    "phone_number",
                                    "marketing"
                                ],
                                "properties": {
                                    "first_name": {
                                        "description": "Admin first name",
                                        "type": "string"
                                    },
                                    "last_name": {
                                        "description": "Admin last name",
                                        "type": "string"
                                    },
                                    "email": {
                                        "description": "Admin email",
                                        "type": "string"
                                    },
                                    "password": {
                                        "description": "Admin password",
                                        "type": "string"
                                    },
                                    "password_confirmation": {
                                        "description": "Admin password",
                                        "type": "string"
                                    },
                                    "avatar": {
                                        "description": "Avatar image UUID",
                                        "type": "string"
                                    },
                                    "address": {
                                        "description": "Admin main address",
                                        "type": "string"
                                    },
                                    "phone_number": {
                                        "description": "Admin main phone number",
                                        "type": "string"
                                    },
                                    "marketing": {
                                        "description": "Admin marketing preference",
                                        "type": "boolean"
                                    }
                                },
                                "type": "object"
                            }
                        }
                    }
                },
                "responses": {
                    "200": {
                        "description": "OK"
                    },
                    "401": {
                        "description": "Unauthorized"
                    },
                    "404": {
                        "description": "Page not found"
                    },
                    "422": {
                        "description": "Unproccessable Entity"
                    },
                    "500": {
                        "description": "Internal server error"
                    }
                }
            }
        },
        "/api/v1/brands": {
            "get": {
                "tags": [
                    "Brands"
                ],
                "summary": "List all brands",
                "operationId": "brands-listings",
                "parameters": [
                    {
                        "name": "page",
                        "in": "query",
                        "required": false,
                        "schema": {
                            "type": "integer"
                        }
                    },
                    {
                        "name": "limit",
                        "in": "query",
                        "required": false,
                        "schema": {
                            "type": "integer"
                        }
                    },
                    {
                        "name": "sortBy",
                        "in": "query",
                        "required": false,
                        "schema": {
                            "type": "string"
                        }
                    },
                    {
                        "name": "desc",
                        "in": "query",
                        "required": false,
                        "schema": {
                            "type": "boolean"
                        }
                    }
                ],
                "responses": {
                    "200": {
                        "description": "OK"
                    },
                    "401": {
                        "description": "Unauthorized"
                    },
                    "404": {
                        "description": "Page not found"
                    },
                    "422": {
                        "description": "Unproccessable Entity"
                    },
                    "500": {
                        "description": "Internal server error"
                    }
                }
            }
        },
        "/api/v1/brand/create": {
            "post": {
                "tags": [
                    "Brands"
                ],
                "summary": "Create a new brand",
                "operationId": "brands-create",
                "requestBody": {
                    "required": true,
                    "content": {
                        "application/x-www-form-urlencoded": {
                            "schema": {
                                "required": [
                                    "title"
                                ],
                                "properties": {
                                    "title": {
                                        "description": "Brand title",
                                        "type": "string"
                                    }
                                },
                                "type": "object"
                            }
                        }
                    }
                },
                "responses": {
                    "200": {
                        "description": "OK"
                    },
                    "401": {
                        "description": "Unauthorized"
                    },
                    "404": {
                        "description": "Page not found"
                    },
                    "422": {
                        "description": "Unproccessable Entity"
                    },
                    "500": {
                        "description": "Internal server error"
                    }
                }
            }
        },
        "/api/v1/brand/{uuid}": {
            "get": {
                "tags": [
                    "Brands"
                ],
                "summary": "Fetch a brand",
                "operationId": "brands-read",
                "parameters": [
                    {
                        "name": "uuid",
                        "in": "path",
                        "required": true,
                        "schema": {
                            "type": "string"
                        }
                    }
                ],
                "responses": {
                    "200": {
                        "description": "OK"
                    },
                    "401": {
                        "description": "Unauthorized"
                    },
                    "404": {
                        "description": "Page not found"
                    },
                    "422": {
                        "description": "Unproccessable Entity"
                    },
                    "500": {
                        "description": "Internal server error"
                    }
                }
            },
            "put": {
                "tags": [
                    "Brands"
                ],
                "summary": "Update an existing brand",
                "operationId": "brands-update",
                "parameters": [
                    {
                        "name": "uuid",
                        "in": "path",
                        "required": true,
                        "schema": {
                            "type": "string"
                        }
                    }
                ],
                "requestBody": {
                    "required": true,
                    "content": {
                        "application/x-www-form-urlencoded": {
                            "schema": {
                                "required": [
                                    "title"
                                ],
                                "properties": {
                                    "title": {
                                        "description": "Brand title",
                                        "type": "string"
                                    }
                                },
                                "type": "object"
                            }
                        }
                    }
                },
                "responses": {
                    "200": {
                        "description": "OK"
                    },
                    "401": {
                        "description": "Unauthorized"
                    },
                    "404": {
                        "description": "Page not found"
                    },
                    "422": {
                        "description": "Unproccessable Entity"
                    },
                    "500": {
                        "description": "Internal server error"
                    }
                }
            },
            "delete": {
                "tags": [
                    "Brands"
                ],
                "summary": "Delete an existing brand",
                "operationId": "brands-delete",
                "parameters": [
                    {
                        "name": "uuid",
                        "in": "path",
                        "required": true,
                        "schema": {
                            "type": "string"
                        }
                    }
                ],
                "responses": {
                    "200": {
                        "description": "OK"
                    },
                    "401": {
                        "description": "Unauthorized"
                    },
                    "404": {
                        "description": "Page not found"
                    },
                    "422": {
                        "description": "Unproccessable Entity"
                    },
                    "500": {
                        "description": "Internal server error"
                    }
                }
            }
        },
        "/api/v1/categories": {
            "get": {
                "tags": [
                    "Categories"
                ],
                "summary": "List all categories",
                "operationId": "categories-listings",
                "parameters": [
                    {
                        "name": "page",
                        "in": "query",
                        "required": false,
                        "schema": {
                            "type": "integer"
                        }
                    },
                    {
                        "name": "limit",
                        "in": "query",
                        "required": false,
                        "schema": {
                            "type": "integer"
                        }
                    },
                    {
                        "name": "sortBy",
                        "in": "query",
                        "required": false,
                        "schema": {
                            "type": "string"
                        }
                    },
                    {
                        "name": "desc",
                        "in": "query",
                        "required": false,
                        "schema": {
                            "type": "boolean"
                        }
                    }
                ],
                "responses": {
                    "200": {
                        "description": "OK"
                    },
                    "401": {
                        "description": "Unauthorized"
                    },
                    "404": {
                        "description": "Page not found"
                    },
                    "422": {
                        "description": "Unproccessable Entity"
                    },
                    "500": {
                        "description": "Internal server error"
                    }
                }
            }
        },
        "/api/v1/category/create": {
            "post": {
                "tags": [
                    "Categories"
                ],
                "summary": "Create a new category",
                "operationId": "categories-create",
                "requestBody": {
                    "required": true,
                    "content": {
                        "application/x-www-form-urlencoded": {
                            "schema": {
                                "required": [
                                    "title"
                                ],
                                "properties": {
                                    "title": {
                                        "description": "Brand title",
                                        "type": "string"
                                    }
                                },
                                "type": "object"
                            }
                        }
                    }
                },
                "responses": {
                    "200": {
                        "description": "OK"
                    },
                    "401": {
                        "description": "Unauthorized"
                    },
                    "404": {
                        "description": "Page not found"
                    },
                    "422": {
                        "description": "Unproccessable Entity"
                    },
                    "500": {
                        "description": "Internal server error"
                    }
                }
            }
        },
        "/api/v1/category/{uuid}": {
            "get": {
                "tags": [
                    "Categories"
                ],
                "summary": "Fetch a category",
                "operationId": "categories-read",
                "parameters": [
                    {
                        "name": "uuid",
                        "in": "path",
                        "required": true,
                        "schema": {
                            "type": "string"
                        }
                    }
                ],
                "responses": {
                    "200": {
                        "description": "OK"
                    },
                    "401": {
                        "description": "Unauthorized"
                    },
                    "404": {
                        "description": "Page not found"
                    },
                    "422": {
                        "description": "Unproccessable Entity"
                    },
                    "500": {
                        "description": "Internal server error"
                    }
                }
            },
            "put": {
                "tags": [
                    "Categories"
                ],
                "summary": "Update an existing category",
                "operationId": "categories-update",
                "parameters": [
                    {
                        "name": "uuid",
                        "in": "path",
                        "required": true,
                        "schema": {
                            "type": "string"
                        }
                    }
                ],
                "requestBody": {
                    "required": true,
                    "content": {
                        "application/x-www-form-urlencoded": {
                            "schema": {
                                "required": [
                                    "title"
                                ],
                                "properties": {
                                    "title": {
                                        "description": "Brand title",
                                        "type": "string"
                                    }
                                },
                                "type": "object"
                            }
                        }
                    }
                },
                "responses": {
                    "200": {
                        "description": "OK"
                    },
                    "401": {
                        "description": "Unauthorized"
                    },
                    "404": {
                        "description": "Page not found"
                    },
                    "422": {
                        "description": "Unproccessable Entity"
                    },
                    "500": {
                        "description": "Internal server error"
                    }
                }
            },
            "delete": {
                "tags": [
                    "Categories"
                ],
                "summary": "Delete an existing category",
                "operationId": "categories-delete",
                "parameters": [
                    {
                        "name": "uuid",
                        "in": "path",
                        "required": true,
                        "schema": {
                            "type": "string"
                        }
                    }
                ],
                "responses": {
                    "200": {
                        "description": "OK"
                    },
                    "401": {
                        "description": "Unauthorized"
                    },
                    "404": {
                        "description": "Page not found"
                    },
                    "422": {
                        "description": "Unproccessable Entity"
                    },
                    "500": {
                        "description": "Internal server error"
                    }
                }
            }
        },
        "/api/v1/file/upload": {
            "post": {
                "tags": [
                    "Files"
                ],
                "summary": "Upload a file",
                "operationId": "files-upload",
                "requestBody": {
                    "required": true,
                    "content": {
                        "multipart/form-data": {
                            "schema": {
                                "required": [
                                    "file"
                                ],
                                "properties": {
                                    "file": {
                                        "description": "file to upload",
                                        "type": "string",
                                        "format": "binary"
                                    }
                                },
                                "type": "object"
                            }
                        }
                    }
                },
                "responses": {
                    "200": {
                        "description": "OK"
                    },
                    "401": {
                        "description": "Unauthorized"
                    },
                    "404": {
                        "description": "Page not found"
                    },
                    "422": {
                        "description": "Unproccessable Entity"
                    },
                    "500": {
                        "description": "Internal server error"
                    }
                }
            }
        },
        "/api/v1/file/{uuid}": {
            "get": {
                "tags": [
                    "Files"
                ],
                "summary": "Read a file",
                "operationId": "files-read",
                "parameters": [
                    {
                        "name": "uuid",
                        "in": "path",
                        "required": true,
                        "schema": {
                            "type": "string"
                        }
                    }
                ],
                "responses": {
                    "200": {
                        "description": "OK"
                    },
                    "401": {
                        "description": "Unauthorized"
                    },
                    "404": {
                        "description": "Page not found"
                    },
                    "422": {
                        "description": "Unproccessable Entity"
                    },
                    "500": {
                        "description": "Internal server error"
                    }
                }
            }
        },
        "/api/v1/main/promotions": {
            "get": {
                "tags": [
                    "Promotions"
                ],
                "summary": "List all promotions",
                "operationId": "promotions-listings",
                "parameters": [
                    {
                        "name": "page",
                        "in": "query",
                        "required": false,
                        "schema": {
                            "type": "integer"
                        }
                    },
                    {
                        "name": "limit",
                        "in": "query",
                        "required": false,
                        "schema": {
                            "type": "integer"
                        }
                    },
                    {
                        "name": "sortBy",
                        "in": "query",
                        "required": false,
                        "schema": {
                            "type": "string"
                        }
                    },
                    {
                        "name": "desc",
                        "in": "query",
                        "required": false,
                        "schema": {
                            "type": "boolean"
                        }
                    },
                    {
                        "name": "valid",
                        "in": "query",
                        "required": false,
                        "schema": {
                            "type": "boolean"
                        }
                    }
                ],
                "responses": {
                    "200": {
                        "description": "OK"
                    },
                    "401": {
                        "description": "Unauthorized"
                    },
                    "404": {
                        "description": "Page not found"
                    },
                    "422": {
                        "description": "Unproccessable Entity"
                    },
                    "500": {
                        "description": "Internal server error"
                    }
                }
            }
        },
        "/api/v1/main/blog": {
            "get": {
                "tags": [
                    "Posts"
                ],
                "summary": "List all posts",
                "operationId": "posts-listings",
                "parameters": [
                    {
                        "name": "page",
                        "in": "query",
                        "required": false,
                        "schema": {
                            "type": "integer"
                        }
                    },
                    {
                        "name": "limit",
                        "in": "query",
                        "required": false,
                        "schema": {
                            "type": "integer"
                        }
                    },
                    {
                        "name": "sortBy",
                        "in": "query",
                        "required": false,
                        "schema": {
                            "type": "string"
                        }
                    },
                    {
                        "name": "desc",
                        "in": "query",
                        "required": false,
                        "schema": {
                            "type": "boolean"
                        }
                    }
                ],
                "responses": {
                    "200": {
                        "description": "OK"
                    },
                    "401": {
                        "description": "Unauthorized"
                    },
                    "404": {
                        "description": "Page not found"
                    },
                    "422": {
                        "description": "Unproccessable Entity"
                    },
                    "500": {
                        "description": "Internal server error"
                    }
                }
            }
        },
        "/api/v1/main/blog/{uuid}": {
            "get": {
                "tags": [
                    "Posts"
                ],
                "summary": "Fetch a post",
                "operationId": "posts-read",
                "parameters": [
                    {
                        "name": "uuid",
                        "in": "path",
                        "required": true,
                        "schema": {
                            "type": "string"
                        }
                    }
                ],
                "responses": {
                    "200": {
                        "description": "OK"
                    },
                    "401": {
                        "description": "Unauthorized"
                    },
                    "404": {
                        "description": "Page not found"
                    },
                    "422": {
                        "description": "Unproccessable Entity"
                    },
                    "500": {
                        "description": "Internal server error"
                    }
                }
            }
        },
        "/api/v1/order-statuses": {
            "get": {
                "tags": [
                    "Order Statuses"
                ],
                "summary": "List all order statuses",
                "operationId": "order-statuses-listings",
                "parameters": [
                    {
                        "name": "page",
                        "in": "query",
                        "required": false,
                        "schema": {
                            "type": "integer"
                        }
                    },
                    {
                        "name": "limit",
                        "in": "query",
                        "required": false,
                        "schema": {
                            "type": "integer"
                        }
                    },
                    {
                        "name": "sortBy",
                        "in": "query",
                        "required": false,
                        "schema": {
                            "type": "string"
                        }
                    },
                    {
                        "name": "desc",
                        "in": "query",
                        "required": false,
                        "schema": {
                            "type": "boolean"
                        }
                    }
                ],
                "responses": {
                    "200": {
                        "description": "OK"
                    },
                    "401": {
                        "description": "Unauthorized"
                    },
                    "404": {
                        "description": "Page not found"
                    },
                    "422": {
                        "description": "Unproccessable Entity"
                    },
                    "500": {
                        "description": "Internal server error"
                    }
                }
            }
        },
        "/api/v1/order-status/create": {
            "post": {
                "tags": [
                    "Order Statuses"
                ],
                "summary": "Create a new order status",
                "operationId": "order-statuses-create",
                "requestBody": {
                    "required": true,
                    "content": {
                        "application/x-www-form-urlencoded": {
                            "schema": {
                                "required": [
                                    "title"
                                ],
                                "properties": {
                                    "title": {
                                        "description": "Brand title",
                                        "type": "string"
                                    }
                                },
                                "type": "object"
                            }
                        }
                    }
                },
                "responses": {
                    "200": {
                        "description": "OK"
                    },
                    "401": {
                        "description": "Unauthorized"
                    },
                    "404": {
                        "description": "Page not found"
                    },
                    "422": {
                        "description": "Unproccessable Entity"
                    },
                    "500": {
                        "description": "Internal server error"
                    }
                }
            }
        },
        "/api/v1/order-status/{uuid}": {
            "get": {
                "tags": [
                    "Order Statuses"
                ],
                "summary": "Fetch an order status",
                "operationId": "order-statuses-read",
                "parameters": [
                    {
                        "name": "uuid",
                        "in": "path",
                        "required": true,
                        "schema": {
                            "type": "string"
                        }
                    }
                ],
                "responses": {
                    "200": {
                        "description": "OK"
                    },
                    "401": {
                        "description": "Unauthorized"
                    },
                    "404": {
                        "description": "Page not found"
                    },
                    "422": {
                        "description": "Unproccessable Entity"
                    },
                    "500": {
                        "description": "Internal server error"
                    }
                }
            },
            "put": {
                "tags": [
                    "Order Statuses"
                ],
                "summary": "Update an existing order status",
                "operationId": "order-statuses-update",
                "parameters": [
                    {
                        "name": "uuid",
                        "in": "path",
                        "required": true,
                        "schema": {
                            "type": "string"
                        }
                    }
                ],
                "requestBody": {
                    "required": true,
                    "content": {
                        "application/x-www-form-urlencoded": {
                            "schema": {
                                "required": [
                                    "title"
                                ],
                                "properties": {
                                    "title": {
                                        "description": "Brand title",
                                        "type": "string"
                                    }
                                },
                                "type": "object"
                            }
                        }
                    }
                },
                "responses": {
                    "200": {
                        "description": "OK"
                    },
                    "401": {
                        "description": "Unauthorized"
                    },
                    "404": {
                        "description": "Page not found"
                    },
                    "422": {
                        "description": "Unproccessable Entity"
                    },
                    "500": {
                        "description": "Internal server error"
                    }
                }
            }
        },
        "/api/v1/order-statuses/{uuid}": {
            "delete": {
                "tags": [
                    "Order Statuses"
                ],
                "summary": "Delete an existing order status",
                "operationId": "order-statuses-delete",
                "parameters": [
                    {
                        "name": "uuid",
                        "in": "path",
                        "required": true,
                        "schema": {
                            "type": "string"
                        }
                    }
                ],
                "responses": {
                    "200": {
                        "description": "OK"
                    },
                    "401": {
                        "description": "Unauthorized"
                    },
                    "404": {
                        "description": "Page not found"
                    },
                    "422": {
                        "description": "Unproccessable Entity"
                    },
                    "500": {
                        "description": "Internal server error"
                    }
                }
            }
        },
        "/api/v1/user/login": {
            "post": {
                "tags": [
                    "User"
                ],
                "summary": "Login a User account",
                "operationId": "user-login",
                "requestBody": {
                    "required": true,
                    "content": {
                        "application/x-www-form-urlencoded": {
                            "schema": {
                                "required": [
                                    "email",
                                    "password"
                                ],
                                "properties": {
                                    "email": {
                                        "description": "User email address",
                                        "type": "string"
                                    },
                                    "password": {
                                        "description": "User password",
                                        "type": "string"
                                    }
                                },
                                "type": "object"
                            }
                        }
                    }
                },
                "responses": {
                    "200": {
                        "description": "OK"
                    },
                    "401": {
                        "description": "Unauthorized"
                    },
                    "404": {
                        "description": "Page not found"
                    },
                    "422": {
                        "description": "Unproccessable Entity"
                    },
                    "500": {
                        "description": "Internal server error"
                    }
                }
            }
        },
        "/api/v1/user/logout": {
            "get": {
                "tags": [
                    "User"
                ],
                "summary": "Logout a User account",
                "operationId": "user-logout",
                "responses": {
                    "200": {
                        "description": "OK"
                    },
                    "401": {
                        "description": "Unauthorized"
                    },
                    "404": {
                        "description": "Page not found"
                    },
                    "422": {
                        "description": "Unproccessable Entity"
                    },
                    "500": {
                        "description": "Internal server error"
                    }
                }
            }
        },
        "/api/v1/user": {
            "get": {
                "tags": [
                    "User"
                ],
                "summary": "View a User account",
                "operationId": "user-read",
                "responses": {
                    "200": {
                        "description": "OK"
                    },
                    "401": {
                        "description": "Unauthorized"
                    },
                    "404": {
                        "description": "Page not found"
                    },
                    "422": {
                        "description": "Unproccessable Entity"
                    },
                    "500": {
                        "description": "Internal server error"
                    }
                }
            },
            "delete": {
                "tags": [
                    "User"
                ],
                "summary": "Delete a User account",
                "operationId": "user-delete",
                "responses": {
                    "200": {
                        "description": "OK"
                    },
                    "401": {
                        "description": "Unauthorized"
                    },
                    "404": {
                        "description": "Page not found"
                    },
                    "422": {
                        "description": "Unproccessable Entity"
                    },
                    "500": {
                        "description": "Internal server error"
                    }
                }
            }
        },
        "/api/v1/user/edit": {
            "put": {
                "tags": [
                    "User"
                ],
                "summary": "Update a user account",
                "operationId": "user-update",
                "requestBody": {
                    "required": true,
                    "content": {
                        "application/x-www-form-urlencoded": {
                            "schema": {
                                "required": [
                                    "first_name",
                                    "last_name",
                                    "email",
                                    "password",
                                    "password_confirmation",
                                    "avatar",
                                    "address",
                                    "phone_number",
                                    "marketing"
                                ],
                                "properties": {
                                    "first_name": {
                                        "description": "User first name",
                                        "type": "string"
                                    },
                                    "last_name": {
                                        "description": "User last name",
                                        "type": "string"
                                    },
                                    "email": {
                                        "description": "User email",
                                        "type": "string"
                                    },
                                    "password": {
                                        "description": "User password",
                                        "type": "string"
                                    },
                                    "password_confirmation": {
                                        "description": "User password",
                                        "type": "string"
                                    },
                                    "avatar": {
                                        "description": "Avatar image UUID",
                                        "type": "string"
                                    },
                                    "address": {
                                        "description": "User main address",
                                        "type": "string"
                                    },
                                    "phone_number": {
                                        "description": "User main phone number",
                                        "type": "string"
                                    },
                                    "marketing": {
                                        "description": "User marketing preference",
                                        "type": "boolean"
                                    }
                                },
                                "type": "object"
                            }
                        }
                    }
                },
                "responses": {
                    "200": {
                        "description": "OK"
                    },
                    "401": {
                        "description": "Unauthorized"
                    },
                    "404": {
                        "description": "Page not found"
                    },
                    "422": {
                        "description": "Unproccessable Entity"
                    },
                    "500": {
                        "description": "Internal server error"
                    }
                }
            }
        },
        "/api/v1/user/orders": {
            "get": {
                "tags": [
                    "User"
                ],
                "summary": "List all user orders",
                "operationId": "user-orders-listing",
                "parameters": [
                    {
                        "name": "page",
                        "in": "query",
                        "required": false,
                        "schema": {
                            "type": "integer"
                        }
                    },
                    {
                        "name": "limit",
                        "in": "query",
                        "required": false,
                        "schema": {
                            "type": "integer"
                        }
                    },
                    {
                        "name": "sortBy",
                        "in": "query",
                        "required": false,
                        "schema": {
                            "type": "string"
                        }
                    },
                    {
                        "name": "desc",
                        "in": "query",
                        "required": false,
                        "schema": {
                            "type": "boolean"
                        }
                    }
                ],
                "responses": {
                    "200": {
                        "description": "OK"
                    },
                    "401": {
                        "description": "Unauthorized"
                    },
                    "404": {
                        "description": "Page not found"
                    },
                    "422": {
                        "description": "Unproccessable Entity"
                    },
                    "500": {
                        "description": "Internal server error"
                    }
                }
            }
        },
        "/api/v1/user/create": {
            "post": {
                "tags": [
                    "User"
                ],
                "summary": "Create a User account",
                "operationId": "user-create",
                "requestBody": {
                    "required": true,
                    "content": {
                        "application/x-www-form-urlencoded": {
                            "schema": {
                                "required": [
                                    "first_name",
                                    "last_name",
                                    "email",
                                    "password",
                                    "password_confirmation",
                                    "avatar",
                                    "address",
                                    "phone_number",
                                    "marketing"
                                ],
                                "properties": {
                                    "first_name": {
                                        "description": "User first name",
                                        "type": "string"
                                    },
                                    "last_name": {
                                        "description": "User last name",
                                        "type": "string"
                                    },
                                    "email": {
                                        "description": "User email",
                                        "type": "string"
                                    },
                                    "password": {
                                        "description": "User password",
                                        "type": "string"
                                    },
                                    "password_confirmation": {
                                        "description": "User password",
                                        "type": "string"
                                    },
                                    "avatar": {
                                        "description": "Avatar image UUID",
                                        "type": "string"
                                    },
                                    "address": {
                                        "description": "User main address",
                                        "type": "string"
                                    },
                                    "phone_number": {
                                        "description": "User main phone number",
                                        "type": "string"
                                    },
                                    "is_marketing": {
                                        "description": "User marketing preference",
                                        "type": "boolean"
                                    }
                                },
                                "type": "object"
                            }
                        }
                    }
                },
                "responses": {
                    "200": {
                        "description": "OK"
                    },
                    "401": {
                        "description": "Unauthorized"
                    },
                    "404": {
                        "description": "Page not found"
                    },
                    "422": {
                        "description": "Unproccessable Entity"
                    },
                    "500": {
                        "description": "Internal server error"
                    }
                }
            }
        }
    },
    "tags": [
        {
            "name": "Admin",
            "description": "Admin API Endpoint"
        },
        {
            "name": "User",
            "description": "User API Endpoint"
        },
        {
            "name": "Files",
            "description": "Files API Endpoint"
        },
        {
            "name": "Brands",
            "description": "Brands API Endpoint"
        },
        {
            "name": "Categories",
            "description": "Categories API Endpoint"
        },
        {
            "name": "Main",
            "description": "Main API Endpoint"
        },
        {
            "name": "Order Statuses",
            "description": "Order Statuses API Endpoint"
        }
    ],
    "components": {
        "securitySchemes": {
            "bearerAuth": {
                "type": "http",
                "name": "bearerAuth",
                "in": "header",
                "bearerFormat": "JWT",
                "scheme": "bearer"
            }
        }
    },
    "security": [
        {
            "bearerAuth": []
        }
    ]
}